powermeasurement/ntp_sync/sync_2.csv

#Digilent WaveForms Oscilloscope Acquisition
#Device Name: Discovery2
#Serial Number: SN:210321A4216E
#Date Time: 2020-04-30 20:21:10.167
#Sample rate: 800Hz
#Samples: 6230
#Trigger: Source: Channel 1 Type: Edge Condition: Rising Level: 0 V Hyst.: Auto HoldOff: 0 s
#Channel 1: Range: 50 mV/div Offset: -200 mV

Time (s),Channel 1 (V)
-5,0.0743815
-4.99875,-0.00139095
-4.9975,-0.00205855
-4.99625,-0.00038955
-4.995,-0.000723349
-4.99375,-0.00205855
-4.9925,-0.00272614
-4.99125,-0.00205855
-4.99,-0.00139095
-4.98875,-5.57504e-05
-4.9875,-5.57504e-05
-4.98625,-5.57504e-05
-4.985,-0.00038955
-4.98375,0.000278049
-4.9825,0.00194704
-4.98125,0.00194704
-4.98,-5.57504e-05
-4.97875,-0.00139095
-4.9775,-0.00205855
-4.97625,-0.00038955
-4.975,-0.000723349
-4.97375,-0.00205855
-4.9725,-0.00272614
-4.97125,-0.00205855
-4.97,-0.00139095
-4.96875,-0.00038955
-4.9675,-5.57504e-05
-4.96625,-0.00038955
-4.965,-0.000723349
-4.96375,0.000278049
-4.9625,0.00194704
-4.96125,0.00194704
-4.96,-0.00038955
-4.95875,-0.00139095
-4.9575,-0.00205855
-4.95625,-0.00038955
-4.955,-0.000723349
-4.95375,-0.00205855
-4.9525,-0.00272614
-4.95125,-0.00205855
-4.95,-0.00139095
-4.94875,-0.00038955
-4.9475,-0.00038955
-4.94625,-0.00038955
-4.945,-0.00038955
-4.94375,0.000278049
-4.9425,0.00194704
-4.94125,0.00194704
-4.94,-0.00038955
-4.93875,-0.00139095
-4.9375,-0.00205855
-4.93625,-0.00038955
-4.935,-0.000723349
-4.93375,-0.00205855
-4.9325,-0.00272614
-4.93125,-0.00205855
-4.93,-0.00139095
-4.92875,-0.00038955
-4.9275,-5.57504e-05
-4.92625,-0.00038955
-4.925,-0.00038955
-4.92375,0.000278049
-4.9225,0.00161325
-4.92125,0.00194704
-4.92,-0.00038955
-4.91875,-0.00139095
-4.9175,-0.00172475
-4.91625,-0.00038955
-4.915,-0.000723349
-4.91375,-0.00205855
-4.9125,-0.00272614
-4.91125,-0.00172475
-4.91,-0.00139095
-4.90875,-0.00038955
-4.9075,-5.57504e-05
-4.90625,-0.00038955
-4.905,-0.00038955
-4.90375,0.000278049
-4.9025,0.00194704
-4.90125,0.00194704
-4.9,-5.57504e-05
-4.89875,-0.00139095
-4.8975,-0.00172475
-4.89625,-0.00038955
-4.895,-0.000723349
-4.89375,-0.00205855
-4.8925,-0.00272614
-4.89125,-0.00205855
-4.89,-0.00139095
-4.88875,-0.00038955
-4.8875,-5.57504e-05
-4.88625,-0.00038955
-4.885,-0.00038955
-4.88375,0.000278049
-4.8825,0.00194704
-4.88125,0.00194704
-4.88,-5.57504e-05
-4.87875,-0.00139095
-4.8775,-0.00205855
-4.87625,-0.00038955
-4.875,-0.000723349
-4.87375,-0.00205855
-4.8725,-0.00272614
-4.87125,-0.00205855
-4.87,-0.00139095
-4.86875,-0.00038955
-4.8675,-5.57504e-05
-4.86625,-0.00038955
-4.865,-0.00038955
-4.86375,0.000278049
-4.8625,0.00194704
-4.86125,0.00194704
-4.86,-0.00038955
-4.85875,-0.00139095
-4.8575,-0.00205855
-4.85625,-0.00038955
-4.855,-0.000723349
-4.85375,-0.00205855
-4.8525,-0.00272614
-4.85125,-0.00205855
-4.85,-0.00172475
-4.84875,-0.00038955
-4.8475,-0.00038955
-4.84625,-0.00038955
-4.845,-0.00038955
-4.84375,0.000278049
-4.8425,0.00194704
-4.84125,0.00194704
-4.84,-0.00038955
-4.83875,-0.00139095
-4.8375,-0.00205855
-4.83625,-0.00038955
-4.835,-0.000723349
-4.83375,-0.00205855
-4.8325,-0.00272614
-4.83125,-0.00205855
-4.83,-0.00139095
-4.82875,-0.00038955
-4.8275,-5.57504e-05
-4.82625,-0.00038955
-4.825,-0.00038955
-4.82375,0.000278049
-4.8225,0.00194704
-4.82125,0.00194704
-4.82,-0.00038955
-4.81875,-0.00139095
-4.8175,-0.00205855
-4.81625,-0.00038955
-4.815,-0.000723349
-4.81375,-0.00205855
-4.8125,-0.00272614
-4.81125,-0.00205855
-4.81,-0.00139095
-4.80875,-0.00038955
-4.8075,-5.57504e-05
-4.80625,-0.00038955
-4.805,-0.000723349
-4.80375,0.000278049
-4.8025,0.00161325
-4.80125,0.00194704
-4.8,-5.57504e-05
-4.79875,-0.00139095
-4.7975,-0.00205855
-4.79625,-0.00038955
-4.795,-0.000723349
-4.79375,-0.00205855
-4.7925,-0.00272614
-4.79125,-0.00205855
-4.79,-0.00172475
-4.78875,-0.00038955
-4.7875,-0.00038955
-4.78625,-0.00038955
-4.785,-0.000723349
-4.78375,0.000278049
-4.7825,0.00194704
-4.78125,0.00194704
-4.78,-0.00038955
-4.77875,-0.00139095
-4.7775,-0.00205855
-4.77625,-0.00038955
-4.775,-0.000723349
-4.77375,-0.00205855
-4.7725,-0.00272614
-4.77125,-0.00205855
-4.77,-0.00139095
-4.76875,-0.00038955
-4.7675,-5.57504e-05
-4.76625,-0.00038955
-4.765,-0.00038955
-4.76375,0.000278049
-4.7625,0.00194704
-4.76125,0.00194704
-4.76,-5.57504e-05
-4.75875,-0.00139095
-4.7575,-0.00205855
-4.75625,-0.00038955
-4.755,-0.000723349
-4.75375,-0.00205855
-4.7525,-0.00272614
-4.75125,-0.00205855
-4.75,-0.00139095
-4.74875,-0.00038955
-4.7475,-5.57504e-05
-4.74625,-0.00038955
-4.745,-0.00038955
-4.74375,0.000278049
-4.7425,0.00194704
-4.74125,0.00194704
-4.74,-5.57504e-05
-4.73875,-0.00139095
-4.7375,-0.00205855
-4.73625,-0.00038955
-4.735,-0.000723349
-4.73375,-0.00205855
-4.7325,-0.00272614
-4.73125,-0.00205855
-4.73,-0.00139095
-4.72875,-0.00038955
-4.7275,-5.57504e-05
-4.72625,-0.00038955
-4.725,-0.00038955
-4.72375,0.000278049
-4.7225,0.00194704
-4.72125,0.00194704
-4.72,-5.57504e-05
-4.71875,-0.00139095
-4.7175,-0.00172475
-4.71625,-0.00038955
-4.715,-0.000723349
-4.71375,-0.00205855
-4.7125,-0.00272614
-4.71125,-0.00205855
-4.71,-0.00139095
-4.70875,-0.00038955
-4.7075,-5.57504e-05
-4.70625,-0.00038955
-4.705,-0.00038955
-4.70375,0.000278049
-4.7025,0.00161325
-4.70125,0.00194704
-4.7,-5.57504e-05
-4.69875,-0.00139095
-4.6975,-0.00205855
-4.69625,-0.00038955
-4.695,-0.000723349
-4.69375,-0.00205855
-4.6925,-0.00272614
-4.69125,-0.00205855
-4.69,-0.00172475
-4.68875,-0.00038955
-4.6875,-5.57504e-05
-4.68625,-0.00038955
-4.685,-0.00038955
-4.68375,0.000278049
-4.6825,0.00161325
-4.68125,0.00194704
-4.68,-5.57504e-05
-4.67875,-0.00139095
-4.6775,-0.00205855
-4.67625,-0.00038955
-4.675,-0.000723349
-4.67375,-0.00205855
-4.6725,-0.00272614
-4.67125,-0.00205855
-4.67,-0.00139095
-4.66875,-0.00038955
-4.6675,-5.57504e-05
-4.66625,-0.00038955
-4.665,-0.00038955
-4.66375,0.000278049
-4.6625,0.00194704
-4.66125,0.00194704
-4.66,-0.00038955
-4.65875,-0.00139095
-4.6575,-0.00205855
-4.65625,-0.00038955
-4.655,-0.000723349
-4.65375,-0.00205855
-4.6525,-0.00272614
-4.65125,-0.00205855
-4.65,-0.00172475
-4.64875,-0.00038955
-4.6475,-0.00038955
-4.64625,-0.00038955
-4.645,-0.000723349
-4.64375,0.000278049
-4.6425,0.00161325
-4.64125,0.00194704
-4.64,-5.57504e-05
-4.63875,-0.00139095
-4.6375,-0.00172475
-4.63625,-0.00038955
-4.635,-0.000723349
-4.63375,-0.00205855
-4.6325,-0.00272614
-4.63125,-0.00205855
-4.63,-0.00139095
-4.62875,-0.00038955
-4.6275,-5.57504e-05
-4.62625,-0.00038955
-4.625,-0.00038955
-4.62375,0.000278049
-4.6225,0.00161325
-4.62125,0.00194704
-4.62,-5.57504e-05
-4.61875,-0.00139095
-4.6175,-0.00172475
-4.61625,-0.00038955
-4.615,-0.000723349
-4.61375,-0.00205855
-4.6125,-0.00272614
-4.61125,-0.00205855
-4.61,-0.00139095
-4.60875,-0.00038955
-4.6075,-5.57504e-05
-4.60625,-0.00038955
-4.605,-0.00038955
-4.60375,0.000278049
-4.6025,0.00194704
-4.60125,0.00194704
-4.6,-5.57504e-05
-4.59875,-0.00139095
-4.5975,-0.00205855
-4.59625,-0.00038955
-4.595,-0.000723349
-4.59375,-0.00205855
-4.5925,-0.00272614
-4.59125,-0.00205855
-4.59,-0.00139095
-4.58875,-0.00038955
-4.5875,-5.57504e-05
-4.58625,-0.00038955
-4.585,-0.000723349
-4.58375,0.000278049
-4.5825,0.00194704
-4.58125,0.00194704
-4.58,-0.00038955
-4.57875,-0.00139095
-4.5775,-0.00205855
-4.57625,-0.00038955
-4.575,-0.000723349
-4.57375,-0.00205855
-4.5725,-0.00272614
-4.57125,-0.00205855
-4.57,-0.00139095
-4.56875,-0.00038955
-4.5675,-5.57504e-05
-4.56625,-0.00038955
-4.565,-0.00038955
-4.56375,0.000278049
-4.5625,0.00194704
-4.56125,0.00194704
-4.56,-5.57504e-05
-4.55875,-0.00139095
-4.5575,-0.00172475
-4.55625,-0.00038955
-4.555,-0.000723349
-4.55375,-0.00205855
-4.5525,-0.00272614
-4.55125,-0.00205855
-4.55,-0.00139095
-4.54875,-0.00038955
-4.5475,-5.57504e-05
-4.54625,-0.00038955
-4.545,-0.00038955
-4.54375,0.000278049
-4.5425,0.00194704
-4.54125,0.00194704
-4.54,-5.57504e-05
-4.53875,-0.00139095
-4.5375,-0.00172475
-4.53625,-0.00038955
-4.535,-0.000723349
-4.53375,-0.00205855
-4.5325,-0.00239234
-4.53125,-0.00205855
-4.53,-0.00139095
-4.52875,-0.00038955
-4.5275,-5.57504e-05
-4.52625,-0.00038955
-4.525,-0.00038955
-4.52375,0.000278049
-4.5225,0.00194704
-4.52125,0.00194704
-4.52,-5.57504e-05
-4.51875,-0.00105715
-4.5175,-0.00172475
-4.51625,-0.00038955
-4.515,-0.000723349
-4.51375,-0.00205855
-4.5125,-0.00272614
-4.51125,-0.00205855
-4.51,-0.00139095
-4.50875,-0.00038955
-4.5075,-5.57504e-05
-4.50625,-0.00038955
-4.505,-0.00038955
-4.50375,0.000278049
-4.5025,0.00161325
-4.50125,0.00194704
-4.5,-5.57504e-05
-4.49875,-0.00139095
-4.4975,-0.00172475
-4.49625,-0.00038955
-4.495,-0.000723349
-4.49375,-0.00205855
-4.4925,-0.00272614
-4.49125,-0.00205855
-4.49,-0.00139095
-4.48875,-0.00038955
-4.4875,-5.57504e-05
-4.48625,-0.00038955
-4.485,-0.00038955
-4.48375,0.000278049
-4.4825,0.00161325
-4.48125,0.00194704
-4.48,-5.57504e-05
-4.47875,-0.00139095
-4.4775,-0.00205855
-4.47625,-0.00038955
-4.475,-0.000723349
-4.47375,-0.00205855
-4.4725,-0.00272614
-4.47125,-0.00205855
-4.47,-0.00139095
-4.46875,-0.00038955
-4.4675,-5.57504e-05
-4.46625,-0.00038955
-4.465,-0.000723349
-4.46375,0.000278049
-4.4625,0.00161325
-4.46125,0.00194704
-4.46,-5.57504e-05
-4.45875,-0.00139095
-4.4575,-0.00172475
-4.45625,-0.00038955
-4.455,-0.000723349
-4.45375,-0.00205855
-4.4525,-0.00272614
-4.45125,-0.00205855
-4.45,-0.00139095
-4.44875,-0.00038955
-4.4475,-5.57504e-05
-4.44625,-0.00038955
-4.445,-0.00038955
-4.44375,0.000278049
-4.4425,0.00194704
-4.44125,0.00194704
-4.44,-5.57504e-05
-4.43875,-0.00139095
-4.4375,-0.00172475
-4.43625,-0.00038955
-4.435,-0.000723349
-4.43375,-0.00205855
-4.4325,-0.00272614
-4.43125,-0.00205855
-4.43,-0.00139095
-4.42875,-0.00038955
-4.4275,-5.57504e-05
-4.42625,-0.00038955
-4.425,-0.00038955
-4.42375,0.000278049
-4.4225,0.00161325
-4.42125,0.00194704
-4.42,-5.57504e-05
-4.41875,-0.00139095
-4.4175,-0.00205855
-4.41625,-0.00038955
-4.415,-0.000723349
-4.41375,-0.00205855
-4.4125,-0.00272614
-4.41125,-0.00205855
-4.41,-0.00139095
-4.40875,-0.00038955
-4.4075,-5.57504e-05
-4.40625,-0.00038955
-4.405,-0.000723349
-4.40375,-5.57504e-05
-4.4025,0.00161325
-4.40125,0.00194704
-4.4,-5.57504e-05
-4.39875,-0.00139095
-4.3975,-0.00205855
-4.39625,-0.00038955
-4.395,-0.000723349
-4.39375,-0.00205855
-4.3925,-0.00272614
-4.39125,-0.00205855
-4.39,-0.00139095
-4.38875,-0.00038955
-4.3875,-5.57504e-05
-4.38625,-0.00038955
-4.385,-0.00038955
-4.38375,0.000278049
-4.3825,0.00161325
-4.38125,0.00194704
-4.38,-5.57504e-05
-4.37875,-0.00139095
-4.3775,-0.00205855
-4.37625,-0.00038955
-4.375,-0.000723349
-4.37375,-0.00205855
-4.3725,-0.00272614
-4.37125,-0.00205855
-4.37,-0.00139095
-4.36875,-0.00038955
-4.3675,-5.57504e-05
-4.36625,-0.00038955
-4.365,-0.00038955
-4.36375,0.000278049
-4.3625,0.00161325
-4.36125,0.00194704
-4.36,-5.57504e-05
-4.35875,-0.00139095
-4.3575,-0.00205855
-4.35625,-0.000723349
-4.355,-0.000723349
-4.35375,-0.00205855
-4.3525,-0.00272614
-4.35125,-0.00239234
-4.35,-0.00139095
-4.34875,-0.00038955
-4.3475,-0.00038955
-4.34625,-0.00038955
-4.345,-0.00038955
-4.34375,0.000278049
-4.3425,0.00161325
-4.34125,0.00194704
-4.34,-5.57504e-05
-4.33875,-0.00139095
-4.3375,-0.00172475
-4.33625,-0.00038955
-4.335,-0.000723349
-4.33375,-0.00205855
-4.3325,-0.00272614
-4.33125,-0.00239234
-4.33,-0.00172475
-4.32875,-0.00038955
-4.3275,-0.00038955
-4.32625,-0.00038955
-4.325,-0.000723349
-4.32375,0.000278049
-4.3225,0.00161325
-4.32125,0.00194704
-4.32,-5.57504e-05
-4.31875,-0.00139095
-4.3175,-0.00172475
-4.31625,-0.00038955
-4.315,-0.000723349
-4.31375,-0.00205855
-4.3125,-0.00272614
-4.31125,-0.00205855
-4.31,-0.00139095
-4.30875,-0.00038955
-4.3075,-5.57504e-05
-4.30625,-0.00038955
-4.305,-0.00038955
-4.30375,0.000278049
-4.3025,0.00161325
-4.30125,0.00194704
-4.3,-5.57504e-05
-4.29875,-0.00139095
-4.2975,-0.00205855
-4.29625,-0.00038955
-4.295,-0.000723349
-4.29375,-0.00205855
-4.2925,-0.00272614
-4.29125,-0.00205855
-4.29,-0.00139095
-4.28875,-0.00038955
-4.2875,-5.57504e-05
-4.28625,-0.00038955
-4.285,-0.00038955
-4.28375,0.000278049
-4.2825,0.00161325
-4.28125,0.00194704
-4.28,-5.57504e-05
-4.27875,-0.00139095
-4.2775,-0.00172475
-4.27625,-0.00038955
-4.275,-0.000723349
-4.27375,-0.00205855
-4.2725,-0.00272614
-4.27125,-0.00205855
-4.27,-0.00139095
-4.26875,-0.00038955
-4.2675,-5.57504e-05
-4.26625,-0.00038955
-4.265,-0.000723349
-4.26375,0.000278049
-4.2625,0.00161325
-4.26125,0.00194704
-4.26,-5.57504e-05
-4.25875,-0.00139095
-4.2575,-0.00172475
-4.25625,-0.00038955
-4.255,-0.000723349
-4.25375,-0.00205855
-4.2525,-0.00272614
-4.25125,-0.00205855
-4.25,-0.00172475
-4.24875,-0.00038955
-4.2475,-5.57504e-05
-4.24625,-0.00038955
-4.245,-0.00038955
-4.24375,0.000278049
-4.2425,0.00161325
-4.24125,0.00194704
-4.24,-5.57504e-05
-4.23875,-0.00139095
-4.2375,-0.00205855
-4.23625,-0.00038955
-4.235,-0.000723349
-4.23375,-0.00205855
-4.2325,-0.00272614
-4.23125,-0.00205855
-4.23,-0.00139095
-4.22875,-0.00038955
-4.2275,-5.57504e-05
-4.22625,-0.00038955
-4.225,-0.000723349
-4.22375,0.000278049
-4.2225,0.00161325
-4.22125,0.00194704
-4.22,-5.57504e-05
-4.21875,-0.00139095
-4.2175,-0.00172475
-4.21625,-0.00038955
-4.215,-0.000723349
-4.21375,-0.00205855
-4.2125,-0.00272614
-4.21125,-0.00239234
-4.21,-0.00139095
-4.20875,-0.00038955
-4.2075,-5.57504e-05
-4.20625,-0.00038955
-4.205,-0.000723349
-4.20375,-5.57504e-05
-4.2025,0.00161325
-4.20125,0.00194704
-4.2,-5.57504e-05
-4.19875,-0.00139095
-4.1975,-0.00172475
-4.19625,-0.00038955
-4.195,-0.000723349
-4.19375,-0.00205855
-4.1925,-0.00272614
-4.19125,-0.00205855
-4.19,-0.00139095
-4.18875,-0.00038955
-4.1875,-0.00038955
-4.18625,-0.00038955
-4.185,-0.00038955
-4.18375,-5.57504e-05
-4.1825,0.00161325
-4.18125,0.00194704
-4.18,-5.57504e-05
-4.17875,-0.00139095
-4.1775,-0.00172475
-4.17625,-0.00038955
-4.175,-0.000723349
-4.17375,-0.00205855
-4.1725,-0.00272614
-4.17125,-0.00205855
-4.17,-0.00139095
-4.16875,-0.00038955
-4.1675,-5.57504e-05
-4.16625,-0.00038955
-4.165,-0.000723349
-4.16375,0.000278049
-4.1625,0.00161325
-4.16125,0.00194704
-4.16,-5.57504e-05
-4.15875,-0.00139095
-4.1575,-0.00205855
-4.15625,-0.00038955
-4.155,-0.000723349
-4.15375,-0.00205855
-4.1525,-0.00272614
-4.15125,-0.00205855
-4.15,-0.00139095
-4.14875,-0.00038955
-4.1475,-5.57504e-05
-4.14625,-0.00038955
-4.145,-0.000723349
-4.14375,0.000278049
-4.1425,0.00161325
-4.14125,0.00228084
-4.14,-5.57504e-05
-4.13875,-0.00139095
-4.1375,-0.00172475
-4.13625,-0.00038955
-4.135,-0.000723349
-4.13375,-0.00205855
-4.1325,-0.00272614
-4.13125,-0.00205855
-4.13,-0.00172475
-4.12875,-0.00038955
-4.1275,-5.57504e-05
-4.12625,-0.00038955
-4.125,-0.00038955
-4.12375,0.000278049
-4.1225,0.00161325
-4.12125,0.00194704
-4.12,-5.57504e-05
-4.11875,-0.00139095
-4.1175,-0.00172475
-4.11625,-0.00038955
-4.115,-0.000723349
-4.11375,-0.00172475
-4.1125,-0.00239234
-4.11125,-0.00205855
-4.11,-0.00139095
-4.10875,-0.00038955
-4.1075,-5.57504e-05
-4.10625,-0.00038955
-4.105,-0.00038955
-4.10375,0.000278049
-4.1025,0.00161325
-4.10125,0.00194704
-4.1,-5.57504e-05
-4.09875,-0.00139095
-4.0975,-0.00172475
-4.09625,-0.00038955
-4.095,-0.000723349
-4.09375,-0.00172475
-4.0925,-0.00239234
-4.09125,-0.00205855
-4.09,-0.00139095
-4.08875,-0.00038955
-4.0875,-5.57504e-05
-4.08625,-0.00038955
-4.085,-0.00038955
-4.08375,0.000278049
-4.0825,0.00161325
-4.08125,0.00194704
-4.08,-5.57504e-05
-4.07875,-0.00105715
-4.0775,-0.00172475
-4.07625,-0.00038955
-4.075,-0.00038955
-4.07375,-0.00172475
-4.0725,-0.00239234
-4.07125,-0.00205855
-4.07,-0.00139095
-4.06875,-0.00038955
-4.0675,-5.57504e-05
-4.06625,-0.00038955
-4.065,-0.00038955
-4.06375,0.000278049
-4.0625,0.00161325
-4.06125,0.00194704
-4.06,-5.57504e-05
-4.05875,-0.00139095
-4.0575,-0.00172475
-4.05625,-0.00038955
-4.055,-0.000723349
-4.05375,-0.00205855
-4.0525,-0.00272614
-4.05125,-0.00205855
-4.05,-0.00172475
-4.04875,-0.00038955
-4.0475,-5.57504e-05
-4.04625,-0.00038955
-4.045,-0.00038955
-4.04375,-5.57504e-05
-4.0425,0.00161325
-4.04125,0.00228084
-4.04,-5.57504e-05
-4.03875,-0.00139095
-4.0375,-0.00172475
-4.03625,-0.00038955
-4.035,-0.000723349
-4.03375,-0.00172475
-4.0325,-0.00239234
-4.03125,-0.00205855
-4.03,-0.00139095
-4.02875,-0.00038955
-4.0275,-5.57504e-05
-4.02625,-0.00038955
-4.025,-0.00038955
-4.02375,0.000278049
-4.0225,0.00161325
-4.02125,0.00228084
-4.02,-5.57504e-05
-4.01875,-0.00139095
-4.0175,-0.00172475
-4.01625,-0.00038955
-4.015,-0.000723349
-4.01375,-0.00172475
-4.0125,-0.00272614
-4.01125,-0.00205855
-4.01,-0.00139095
-4.00875,-0.00038955
-4.0075,-5.57504e-05
-4.00625,-0.00038955
-4.005,-0.00038955
-4.00375,0.000278049
-4.0025,0.00161325
-4.00125,0.00194704
-4,-5.57504e-05
-3.99875,-0.00139095
-3.9975,-0.00172475
-3.99625,-0.00038955
-3.995,-0.000723349
-3.99375,-0.00205855
-3.9925,-0.00272614
-3.99125,-0.00239234
-3.99,-0.00139095
-3.98875,-0.00038955
-3.9875,-5.57504e-05
-3.98625,-0.00038955
-3.985,-0.00038955
-3.98375,0.000278049
-3.9825,0.00161325
-3.98125,0.00194704
-3.98,-5.57504e-05
-3.97875,-0.00139095
-3.9775,-0.00172475
-3.97625,-0.00038955
-3.975,-0.000723349
-3.97375,-0.00172475
-3.9725,-0.00272614
-3.97125,-0.00239234
-3.97,-0.00139095
-3.96875,-0.00038955
-3.9675,-5.57504e-05
-3.96625,-0.00038955
-3.965,-0.00038955
-3.96375,0.000278049
-3.9625,0.00161325
-3.96125,0.00194704
-3.96,-5.57504e-05
-3.95875,-0.00139095
-3.9575,-0.00172475
-3.95625,-0.00038955
-3.955,-0.000723349
-3.95375,-0.00205855
-3.9525,-0.00272614
-3.95125,-0.00205855
-3.95,-0.00139095
-3.94875,-0.00038955
-3.9475,-5.57504e-05
-3.94625,-0.00038955
-3.945,-0.00038955
-3.94375,-5.57504e-05
-3.9425,0.00161325
-3.94125,0.00194704
-3.94,-5.57504e-05
-3.93875,-0.00139095
-3.9375,-0.00172475
-3.93625,-0.00038955
-3.935,-0.000723349
-3.93375,-0.00205855
-3.9325,-0.00272614
-3.93125,-0.00239234
-3.93,-0.00172475
-3.92875,-0.00038955
-3.9275,-0.00038955
-3.92625,-0.00038955
-3.925,-0.000723349
-3.92375,-5.57504e-05
-3.9225,0.00161325
-3.92125,0.00194704
-3.92,-5.57504e-05
-3.91875,-0.00139095
-3.9175,-0.00172475
-3.91625,-0.00038955
-3.915,-0.000723349
-3.91375,-0.00172475
-3.9125,-0.00272614
-3.91125,-0.00239234
-3.91,-0.00172475
-3.90875,-0.00038955
-3.9075,-5.57504e-05
-3.90625,-0.00038955
-3.905,-0.00038955
-3.90375,-5.57504e-05
-3.9025,0.00161325
-3.90125,0.00194704
-3.9,-5.57504e-05
-3.89875,-0.00139095
-3.8975,-0.00205855
-3.89625,-0.00038955
-3.895,-0.000723349
-3.89375,-0.00172475
-3.8925,-0.00272614
-3.89125,-0.00239234
-3.89,-0.00172475
-3.88875,-0.00038955
-3.8875,-5.57504e-05
-3.88625,-0.00038955
-3.885,-0.00038955
-3.88375,0.000278049
-3.8825,0.00161325
-3.88125,0.00228084
-3.88,-5.57504e-05
-3.87875,-0.00139095
-3.8775,-0.00172475
-3.87625,-0.00038955
-3.875,-0.000723349
-3.87375,-0.00172475
-3.8725,-0.00272614
-3.87125,-0.00205855
-3.87,-0.00139095
-3.86875,-0.00038955
-3.8675,-5.57504e-05
-3.86625,-0.00038955
-3.865,-0.00038955
-3.86375,-5.57504e-05
-3.8625,0.00161325
-3.86125,0.00194704
-3.86,-5.57504e-05
-3.85875,-0.00139095
-3.8575,-0.00172475
-3.85625,-0.00038955
-3.855,-0.000723349
-3.85375,-0.00205855
-3.8525,-0.00272614
-3.85125,-0.00205855
-3.85,-0.00139095
-3.84875,-0.00038955
-3.8475,-5.57504e-05
-3.84625,-0.00038955
-3.845,-0.00038955
-3.84375,-5.57504e-05
-3.8425,0.00161325
-3.84125,0.00194704
-3.84,-5.57504e-05
-3.83875,-0.00139095
-3.8375,-0.00172475
-3.83625,-0.00038955
-3.835,-0.000723349
-3.83375,-0.00205855
-3.8325,-0.00272614
-3.83125,-0.00205855
-3.83,-0.00139095
-3.82875,-0.00038955
-3.8275,-5.57504e-05
-3.82625,-0.00038955
-3.825,-0.00038955
-3.82375,0.000278049
-3.8225,0.00161325
-3.82125,0.00228084
-3.82,-5.57504e-05
-3.81875,-0.00139095
-3.8175,-0.00172475
-3.81625,-0.00038955
-3.815,-0.000723349
-3.81375,-0.00172475
-3.8125,-0.00272614
-3.81125,-0.00205855
-3.81,-0.00139095
-3.80875,-0.00038955
-3.8075,-5.57504e-05
-3.80625,-0.00038955
-3.805,-0.00038955
-3.80375,0.000278049
-3.8025,0.00194704
-3.80125,0.00228084
-3.8,-5.57504e-05
-3.79875,-0.00105715
-3.7975,-0.00172475
-3.79625,-0.00038955
-3.795,-0.000723349
-3.79375,-0.00172475
-3.7925,-0.00272614
-3.79125,-0.00205855
-3.79,-0.00139095
-3.78875,-0.00038955
-3.7875,-5.57504e-05
-3.78625,-0.00038955
-3.785,-0.00038955
-3.78375,0.000278049
