powermeasurement/verbruik_meting/NO_static_ip_64ints.csv

#Digilent WaveForms Oscilloscope Acquisition,
#Device Name: Discovery2,
#Serial Number: SN:210321A4216E,
#Date Time: 2020-04-19 17:12:53.201,
#Sample rate: 1600Hz,
#Samples: 8000,
#Trigger: Source: Channel 1 Type: Edge Condition: Rising Level: 0 V Hyst.: Auto HoldOff: 0 s,
#Channel 1: Range: 50 mV/div Offset: -240 mV,
#Power Supplies: OFF,
#Positive Supply: Rdy,
#Voltage: 1 V,
#Negative Supply: Rdy,
#Voltage: -1 V,
,
Time (s),Channel 1 (V)
-2.1,-0.000618286
-2.09937,-0.000618286
-2.09875,-0.000952086
-2.09813,-0.00128588
-2.0975,-0.00128588
-2.09687,-0.000952086
-2.09625,4.93E-05
-2.09563,0.000383111
-2.095,0.00205211
-2.09437,0.00171831
-2.09375,0.00071691
-2.09312,-0.000284487
-2.0925,-0.00161968
-2.09187,-0.00228728
-2.09125,-0.00262108
-2.09062,-0.00295488
-2.09,-0.00262108
-2.08937,-0.000284487
-2.08875,-0.000952086
-2.08812,-0.000952086
-2.0875,-0.00128588
-2.08688,-0.00295488
-2.08625,-0.00395628
-2.08562,-0.00362248
-2.085,-0.00362248
-2.08438,-0.00295488
-2.08375,-0.00262108
-2.08312,-0.00262108
-2.0825,4.93E-05
-2.08187,0.000383111
-2.08125,0.00071691
-2.08062,0.000383111
-2.08,-0.000618286
-2.07937,-0.000952086
-2.07875,-0.000952086
-2.07812,-0.00128588
-2.0775,-0.00128588
-2.07687,-0.000952086
-2.07625,4.93E-05
-2.07563,0.000383111
-2.075,0.00205211
-2.07437,0.00171831
-2.07375,0.00071691
-2.07312,-0.000284487
-2.0725,-0.00161968
-2.07187,-0.00228728
-2.07125,-0.00262108
-2.07062,-0.00295488
-2.07,-0.00262108
-2.06937,-0.000284487
-2.06875,-0.000952086
-2.06812,-0.000952086
-2.0675,-0.00128588
-2.06688,-0.00295488
-2.06625,-0.00395628
-2.06562,-0.00362248
-2.065,-0.00362248
-2.06438,-0.00295488
-2.06375,-0.00262108
-2.06312,-0.00228728
-2.0625,4.93E-05
-2.06187,0.000383111
-2.06125,0.00071691
-2.06062,0.000383111
-2.06,-0.000618286
-2.05937,-0.000952086
-2.05875,-0.000952086
-2.05812,-0.000952086
-2.0575,-0.00128588
-2.05687,-0.000952086
-2.05625,4.93E-05
-2.05563,0.000383111
-2.055,0.00205211
-2.05437,0.00171831
-2.05375,0.00071691
-2.05313,-0.000284487
-2.0525,-0.00161968
-2.05187,-0.00228728
-2.05125,-0.00262108
-2.05062,-0.00262108
-2.05,-0.00262108
-2.04937,-0.000284487
-2.04875,-0.000618286
-2.04812,-0.000952086
-2.0475,-0.000952086
-2.04688,-0.00295488
-2.04625,-0.00395628
-2.04562,-0.00362248
-2.045,-0.00362248
-2.04438,-0.00295488
-2.04375,-0.00262108
-2.04312,-0.00228728
-2.0425,0.000383111
-2.04187,0.00071691
-2.04125,0.00071691
-2.04062,0.000383111
-2.04,-0.000284487
-2.03937,-0.000618286
-2.03875,-0.000952086
-2.03812,-0.00128588
-2.0375,-0.00128588
-2.03687,-0.000952086
-2.03625,4.93E-05
-2.03563,0.000383111
-2.035,0.00171831
-2.03437,0.00171831
-2.03375,0.000383111
-2.03313,-0.000618286
-2.0325,-0.00195348
-2.03187,-0.00228728
-2.03125,-0.00262108
-2.03062,-0.00295488
-2.03,-0.00195348
-2.02937,-0.000284487
-2.02875,-0.000952086
-2.02812,-0.000952086
-2.0275,-0.00128588
-2.02687,-0.00328868
-2.02625,-0.00395628
-2.02562,-0.00362248
-2.025,-0.00362248
-2.02438,-0.00295488
-2.02375,-0.00262108
-2.02312,-0.00228728
-2.0225,4.93E-05
-2.02188,0.00071691
-2.02125,0.00071691
-2.02062,0.000383111
-2.02,-0.000618286
-2.01937,-0.000952086
-2.01875,-0.000952086
-2.01812,0.243723
-2.0175,-0.000952086
-2.01687,0.0734851
-2.01625,0.0063915
-2.01562,0.000383111
-2.015,0.060467
-2.01437,0.030425
-2.01375,0.0267532
-2.01313,0.025418
-2.0125,0.0240829
-2.01187,0.0234153
-2.01125,0.0230815
-2.01062,0.0230815
-2.01,0.0237491
-2.00937,0.0257518
-2.00875,0.0250842
-2.00812,0.0244167
-2.0075,0.0230815
-2.00687,0.0210787
-2.00625,0.0204111
-2.00562,0.0210787
-2.005,0.0214125
-2.00438,0.0234153
-2.00375,0.0217463
-2.00312,0.0217463
-2.0025,0.0264194
-2.00188,0.0280884
-2.00125,0.0280884
-2.00062,0.0277546
-2,0.0267532
-1.99938,0.0267532
-1.99875,0.0264194
-1.99813,0.0260856
-1.9975,0.0267532
-1.99688,0.0267532
-1.99625,0.0277546
-1.99563,0.0260856
-1.995,0.0264194
-1.99438,0.0257518
-1.99375,0.0247504
-1.99313,0.0234153
-1.9925,0.0224139
-1.99188,0.0217463
-1.99125,0.0214125
-1.99063,0.0210787
-1.99,0.0220801
-1.98938,0.0237491
-1.98875,0.0234153
-1.98813,0.0217463
-1.9875,0.0274208
-1.98688,0.0377686
-1.98625,0.0397714
-1.98563,0.0401052
-1.985,0.0397714
-1.98438,0.040439
-1.98375,0.0414404
-1.98313,0.0411066
-1.9825,0.0434432
-1.98188,0.043777
-1.98125,0.0441108
-1.98063,0.0434432
-1.98,0.0427756
-1.97938,0.0427756
-1.97875,0.0431094
-1.97813,0.042108
-1.9775,0.042108
-1.97688,0.0424418
-1.97625,0.043777
-1.97563,0.0441108
-1.975,0.0451122
-1.97437,0.0447784
-1.97375,0.043777
-1.97313,0.0424418
-1.9725,0.0414404
-1.97188,0.0407728
-1.97125,0.0401052
-1.97063,0.0401052
-1.97,0.0411066
-1.96938,0.0434432
-1.96875,0.0424418
-1.96813,0.042108
-1.9675,0.042108
-1.96688,0.0401052
-1.96625,0.0394376
-1.96563,0.0397714
-1.965,0.0401052
-1.96438,0.0407728
-1.96375,0.0407728
-1.96313,0.0414404
-1.9625,0.043777
-1.96188,0.0441108
-1.96125,0.0441108
-1.96063,0.043777
-1.96,0.0427756
-1.95938,0.0427756
-1.95875,0.0424418
-1.95813,0.042108
-1.9575,0.0424418
-1.95688,0.0427756
-1.95625,0.0434432
-1.95563,0.043777
-1.955,0.045446
-1.95438,0.0441108
-1.95375,0.0431094
-1.95312,0.0417742
-1.9525,0.0411066
-1.95188,0.0401052
-1.95125,0.0397714
-1.95063,0.0397714
-1.95,0.0407728
-1.94938,0.042108
-1.94875,0.0417742
-1.94813,0.0417742
-1.9475,0.0414404
-1.94688,0.0401052
-1.94625,0.0391038
-1.94563,0.0397714
-1.945,0.0394376
-1.94438,0.040439
-1.94375,0.040439
-1.94312,0.0414404
-1.9425,0.0431094
-1.94188,0.0441108
-1.94125,0.043777
-1.94063,0.0434432
-1.94,0.0424418
-1.93938,0.0424418
-1.93875,0.042108
-1.93813,0.0427756
-1.9375,0.042108
-1.93688,0.0427756
-1.93625,0.043777
-1.93563,0.043777
-1.935,0.0447784
-1.93438,0.0444446
-1.93375,0.0434432
-1.93313,0.0424418
-1.9325,0.0411066
-1.93188,0.040439
-1.93125,0.040439
-1.93063,0.0397714
-1.93,0.0411066
-1.92938,0.0427756
-1.92875,0.0424418
-1.92813,0.0417742
-1.9275,0.0417742
-1.92688,0.0397714
-1.92625,0.0397714
-1.92563,0.0397714
-1.925,0.0401052
-1.92438,0.0407728
-1.92375,0.0407728
-1.92313,0.0414404
-1.9225,0.0441108
-1.92188,0.0441108
-1.92125,0.0441108
-1.92063,0.043777
-1.92,0.0427756
-1.91938,0.0431094
-1.91875,0.0424418
-1.91813,0.042108
-1.9175,0.042108
-1.91688,0.0431094
-1.91625,0.0431094
-1.91563,0.0434432
-1.915,0.0447784
-1.91438,0.0444446
-1.91375,0.0431094
-1.91313,0.0417742
-1.9125,0.0407728
-1.91187,0.040439
-1.91125,0.0397714
-1.91063,0.0394376
-1.91,0.0407728
-1.90938,0.0424418
-1.90875,0.0417742
-1.90813,0.0414404
-1.9075,0.0414404
-1.90688,0.0394376
-1.90625,0.0391038
-1.90563,0.0394376
-1.905,0.0401052
-1.90438,0.040439
-1.90375,0.0407728
-1.90313,0.0414404
-1.9025,0.043777
-1.90188,0.043777
-1.90125,0.043777
-1.90063,0.043777
-1.9,0.0427756
-1.89938,0.0424418
-1.89875,0.0424418
-1.89813,0.042108
-1.8975,0.0424418
-1.89688,0.0427756
-1.89625,0.0434432
-1.89563,0.0441108
-1.895,0.0457798
-1.89438,0.0447784
-1.89375,0.0434432
-1.89313,0.042108
-1.8925,0.0407728
-1.89188,0.0401052
-1.89125,0.0397714
-1.89062,0.0394376
-1.89,0.0401052
-1.88938,0.0417742
-1.88875,0.0414404
-1.88813,0.0414404
-1.8875,0.0407728
-1.88688,0.03877
-1.88625,0.0384362
-1.88563,0.0391038
-1.885,0.0391038
-1.88438,0.0394376
-1.88375,0.0401052
-1.88313,0.0411066
-1.8825,0.0431094
-1.88188,0.043777
-1.88125,0.043777
-1.88062,0.0434432
-1.88,0.0427756
-1.87938,0.0427756
-1.87875,0.0427756
-1.87813,0.0424418
-1.8775,0.042108
-1.87688,0.0427756
-1.87625,0.043777
-1.87563,0.0444446
-1.875,0.045446
-1.87438,0.0447784
-1.87375,0.0434432
-1.87313,0.042108
-1.8725,0.0407728
-1.87188,0.0401052
-1.87125,0.0401052
-1.87063,0.0394376
-1.87,0.0401052
-1.86938,0.0417742
-1.86875,0.0414404
-1.86813,0.0411066
-1.8675,0.0407728
-1.86688,0.03877
-1.86625,0.03877
-1.86563,0.03877
-1.865,0.03877
-1.86438,0.0397714
-1.86375,0.0401052
-1.86313,0.0407728
-1.8625,0.0431094
-1.86188,0.043777
-1.86125,0.0441108
-1.86063,0.0434432
-1.86,0.0427756
-1.85938,0.0427756
-1.85875,0.0427756
-1.85813,0.0424418
-1.8575,0.042108
-1.85688,0.0431094
-1.85625,0.0434432
-1.85563,0.0441108
-1.855,0.045446
-1.85438,0.0447784
-1.85375,0.0431094
-1.85313,0.0417742
-1.8525,0.040439
-1.85188,0.0401052
-1.85125,0.0397714
-1.85063,0.0394376
-1.85,0.0401052
-1.84937,0.042108
-1.84875,0.0411066
-1.84813,0.0411066
-1.8475,0.0407728
-1.84688,0.03877
-1.84625,0.0384362
-1.84563,0.03877
-1.845,0.0391038
-1.84438,0.0394376
-1.84375,0.0397714
-1.84313,0.0407728
-1.8425,0.0434432
-1.84188,0.0434432
-1.84125,0.043777
-1.84063,0.0434432
-1.84,0.0427756
-1.83938,0.0424418
-1.83875,0.0424418
-1.83813,0.042108
-1.8375,0.0424418
-1.83688,0.0427756
-1.83625,0.0434432
-1.83563,0.0441108
-1.835,0.045446
-1.83438,0.0444446
-1.83375,0.0431094
-1.83313,0.0417742
-1.8325,0.0407728
-1.83188,0.0397714
-1.83125,0.0394376
-1.83063,0.0394376
-1.83,0.0401052
-1.82938,0.0417742
-1.82875,0.0414404
-1.82812,0.0414404
-1.8275,0.0407728
-1.82688,0.0384362
-1.82625,0.0384362
-1.82563,0.0391038
-1.825,0.03877
-1.82438,0.0394376
-1.82375,0.0401052
-1.82313,0.0411066
-1.8225,0.0431094
-1.82188,0.0434432
-1.82125,0.043777
-1.82063,0.0434432
-1.82,0.0427756
-1.81938,0.0424418
-1.81875,0.0424418
-1.81812,0.0424418
-1.8175,0.042108
-1.81688,0.0427756
-1.81625,0.043777
-1.81563,0.0441108
-1.815,0.0451122
-1.81438,0.0441108
-1.81375,0.0431094
-1.81313,0.0417742
-1.8125,0.040439
-1.81188,0.0397714
-1.81125,0.0397714
-1.81063,0.0391038
-1.81,0.0397714
-1.80938,0.0417742
-1.80875,0.0414404
-1.80813,0.0411066
-1.8075,0.0407728
-1.80688,0.0384362
-1.80625,0.03877
-1.80563,0.03877
-1.805,0.03877
-1.80438,0.0394376
-1.80375,0.0401052
-1.80313,0.0407728
-1.8025,0.0431094
-1.80188,0.043777
-1.80125,0.043777
-1.80063,0.0431094
-1.8,0.0424418
-1.79938,0.0424418
-1.79875,0.0424418
-1.79813,0.0424418
-1.7975,0.0424418
-1.79688,0.0431094
-1.79625,0.0434432
-1.79563,0.043777
-1.795,0.0451122
-1.79438,0.0444446
-1.79375,0.0431094
-1.79313,0.0414404
-1.7925,0.040439
-1.79188,0.0401052
-1.79125,0.0394376
-1.79063,0.0391038
-1.79,0.0401052
-1.78938,0.0417742
-1.78875,0.0411066
-1.78813,0.0407728
-1.7875,0.0411066
-1.78687,0.03877
-1.78625,0.0384362
-1.78563,0.0384362
-1.785,0.0391038
-1.78438,0.0394376
-1.78375,0.0397714
-1.78313,0.0407728
-1.7825,0.0431094
-1.78188,0.0434432
-1.78125,0.0434432
-1.78063,0.0431094
-1.78,0.0427756
-1.77938,0.0424418
-1.77875,0.0424418
-1.77813,0.042108
-1.7775,0.042108
-1.77688,0.0427756
-1.77625,0.0434432
-1.77563,0.043777
-1.775,0.0451122
-1.77438,0.0441108
-1.77375,0.0427756
-1.77313,0.0417742
-1.7725,0.040439
-1.77188,0.0397714
-1.77125,0.0394376
-1.77063,0.0394376
-1.77,0.0401052
-1.76938,0.0417742
-1.76875,0.0411066
-1.76813,0.0414404
-1.7675,0.0407728
-1.76688,0.0384362
-1.76625,0.0384362
-1.76562,0.03877
-1.765,0.03877
-1.76438,0.0391038
-1.76375,0.0397714
-1.76313,0.0407728
-1.7625,0.0427756
-1.76188,0.0434432
-1.76125,0.043777
-1.76063,0.0427756
-1.76,0.0424418
-1.75938,0.0417742
-1.75875,0.0424418
-1.75813,0.0417742
-1.7575,0.042108
-1.75688,0.0424418
-1.75625,0.0431094
-1.75562,0.043777
-1.755,0.0447784
-1.75438,0.0441108
-1.75375,0.0424418
-1.75313,0.0414404
-1.7525,0.0397714
-1.75188,0.0397714
-1.75125,0.03877
-1.75063,0.0391038
-1.75,0.0394376
-1.74938,0.0417742
-1.74875,0.0407728
-1.74813,0.0407728
-1.7475,0.040439
-1.74688,0.0381024
-1.74625,0.0381024
-1.74563,0.0381024
-1.745,0.03877
-1.74438,0.0391038
-1.74375,0.0397714
-1.74313,0.0401052
-1.7425,0.0427756
-1.74188,0.0427756
-1.74125,0.0434432
-1.74063,0.0424418
-1.74,0.042108
-1.73938,0.0417742
-1.73875,0.042108
-1.73813,0.0417742
-1.7375,0.0417742
-1.73688,0.0424418
-1.73625,0.0427756
-1.73563,0.043777
-1.735,0.0444446
-1.73438,0.0441108
-1.73375,0.042108
-1.73313,0.0414404
-1.7325,0.0397714
-1.73188,0.0397714
-1.73125,0.03877
-1.73063,0.03877
-1.73,0.0397714
-1.72938,0.0414404
-1.72875,0.0407728
-1.72813,0.0407728
-1.7275,0.040439
-1.72688,0.0381024
-1.72625,0.0367672
-1.72563,0.037101
-1.725,0.037101
-1.72437,0.0374348
-1.72375,0.0377686
-1.72313,0.03877
-1.7225,0.0411066
-1.72188,0.0414404
-1.72125,0.0417742
-1.72063,0.0411066
-1.72,0.040439
-1.71938,0.040439
-1.71875,0.040439
-1.71813,0.0401052
-1.7175,0.0401052
-1.71688,0.0411066
-1.71625,0.0414404
-1.71563,0.0417742
-1.715,0.0431094
-1.71438,0.042108
-1.71375,0.0411066
-1.71313,0.0394376
-1.7125,0.0391038
-1.71188,0.0384362
-1.71125,0.0360996
-1.71063,0.0357658
-1.71,0.037101
-1.70938,0.0350982
-1.70875,0.0347644
-1.70813,0.0344306
-1.7075,0.0340968
-1.70688,0.0317602
-1.70625,0.0317602
-1.70563,0.032094
-1.705,0.0324278
-1.70438,0.0330954
-1.70375,0.0330954
-1.70312,0.0344306
-1.7025,0.0347644
-1.70188,0.0501192
-1.70125,0.052122
-1.70063,0.0507868
-1.7,0.0511206
-1.69938,0.0557938
-1.69875,0.0517882
-1.69813,0.0574628
-1.6975,0.0567952
-1.69688,0.0567952
-1.69625,0.0581304
-1.69563,0.058798
-1.695,0.060467
-1.69438,0.058798
-1.69375,0.0591318
-1.69312,0.0567952
-1.6925,0.0564614
-1.69188,0.0551262
-1.69125,0.0557938
-1.69063,0.0484502
-1.69,0.050453
-1.68938,0.0407728
-1.68875,0.0427756
-1.68813,0.0501192
-1.6875,0.0574628
-1.68688,0.0551262
-1.68625,0.05546
-1.68563,0.0547924
-1.685,0.0561276
-1.68438,0.05546
-1.68375,0.0474488
-1.68313,0.053791
-1.6825,0.0567952
-1.68188,0.0577966
-1.68125,0.0514544
-1.68063,0.0544586
-1.68,0.045446
-1.67938,0.0501192
-1.67875,0.052122
-1.67813,0.048784
-1.6775,0.052122
-1.67688,0.0524558
-1.67625,0.0581304
-1.67563,0.0624698
-1.675,0.0628036
-1.67438,0.0718161
-1.67375,0.0891737
-1.67313,0.0885061
-1.6725,0.0871709
-1.67188,0.0871709
-1.67125,0.0865033
-1.67063,0.0861695
-1.67,0.0875047
-1.66938,0.0881723
-1.66875,0.0878385
-1.66813,0.0878385
-1.6675,0.0871709
-1.66688,0.0851681
-1.66625,0.0858357
-1.66563,0.0851681
-1.665,0.0858357
-1.66438,0.0865033
-1.66375,0.0865033
-1.66313,0.0875047
-1.6625,0.0901751
-1.66187,0.0901751
-1.66125,0.0911765
-1.66063,0.0898413
-1.66,0.0898413
-1.65938,0.0888399
-1.65875,0.0888399
-1.65813,0.0888399
-1.6575,0.0888399
-1.65688,0.0895075
-1.65625,0.0908427
-1.65563,0.0908427
-1.655,0.0925117
-1.65438,0.0915103
-1.65375,0.0895075
-1.65313,0.0888399
-1.6525,0.0871709
-1.65188,0.0868371
-1.65125,0.0861695
-1.65063,0.0865033
-1.65,0.0878385
-1.64938,0.0881723
-1.64875,0.0885061
-1.64813,0.0881723
-1.6475,0.0875047
-1.64688,0.0851681
-1.64625,0.0851681
-1.64563,0.0858357
-1.645,0.0855019
-1.64438,0.0861695
-1.64375,0.0868371
-1.64313,0.0875047
-1.6425,0.0901751
-1.64188,0.0901751
-1.64125,0.0908427
-1.64062,0.0895075
-1.64,0.0841667
-1.63938,0.0824977
-1.63875,0.245058
-1.63813,0.340524
-1.6375,0.365226
-1.63688,0.374906
-1.63625,0.37524
-1.63563,0.349203
-1.635,0.311818
-1.63438,0.244724
-1.63375,0.174292
-1.63313,0.119216
-1.6325,0.120885
-1.63188,0.120885
-1.63125,0.120551
-1.63062,0.119883
-1.63,0.121552
-1.62938,0.122554
-1.62875,0.121886
-1.62813,0.11788
-1.6275,0.126559
-1.62688,0.123889
-1.62625,0.124223
-1.62563,0.123889
-1.625,0.123889
-1.62438,0.125224
-1.62375,0.126225
-1.62313,0.128228
-1.6225,0.128228
-1.62188,0.17763
-1.62125,0.443668
-1.62063,0.116879
-1.62,0.111538
-1.61938,0.110871
-1.61875,0.111204
-1.61813,0.29446
-1.6175,0.125892
-1.61688,0.127561
-1.61625,0.123555
-1.61563,0.116545
-1.615,0.117547
-1.61438,0.116545
-1.61375,0.115544
-1.61313,0.113875
-1.6125,0.112873
-1.61188,0.11254
-1.61125,0.111872
-1.61063,0.111872
-1.61,0.112206
-1.60938,0.113875
-1.60875,0.113875
-1.60813,0.113875
-1.6075,0.113207
-1.60688,0.107866
-1.60625,0.107533
-1.60563,0.107866
-1.605,0.1082
-1.60438,0.118882
-1.60375,0.112206
-1.60313,0.113541
-1.6025,0.115544
-1.60188,0.116211
-1.60125,0.115878
-1.60063,0.11521
-1.6,0.114876
-1.59937,0.114542
-1.59875,0.110203
-1.59813,0.107199
-1.5975,0.116211
-1.59688,0.115878
-1.59625,0.115544
-1.59563,0.116879
-1.595,0.117547
-1.59438,0.116545
-1.59375,0.115544
-1.59313,0.113875
-1.5925,0.113207
-1.59188,0.11254
-1.59125,0.112206
-1.59063,0.111872
-1.59,0.113541
-1.58938,0.114209
-1.58875,0.114209
-1.58813,0.113541
-1.5875,0.113541
-1.58688,0.111204
-1.58625,0.111204
-1.58563,0.111538
-1.585,0.111538
-1.58438,0.111872
-1.58375,0.11254
-1.58313,0.113875
-1.5825,0.115544
-1.58188,0.116211
-1.58125,0.115878
-1.58063,0.115544
-1.58,0.11521
-1.57938,0.114876
-1.57875,0.114876
-1.57812,0.114542
-1.5775,0.120551
-1.57688,0.115544
-1.57625,0.115878
-1.57563,0.116879
-1.575,0.11788
-1.57438,0.116545
-1.57375,0.115544
-1.57313,0.113875
-1.5725,0.113207
-1.57188,0.11254
-1.57125,0.112206
-1.57063,0.111872
-1.57,0.113207
-1.56938,0.114209
-1.56875,0.113875
-1.56812,0.113541
-1.5675,0.113207
-1.56688,0.111204
-1.56625,0.111204
-1.56563,0.111538
-1.565,0.111538
-1.56438,0.111872
-1.56375,0.11254
-1.56313,0.113875
-1.5625,0.115878
-1.56188,0.116211
-1.56125,0.116211
-1.56063,0.115544
-1.56,0.11521
-1.55938,0.114876
-1.55875,0.114876
-1.55813,0.114542
-1.5575,0.114542
-1.55688,0.115878
-1.55625,0.115544
-1.55563,0.113875
-1.555,0.114542
-1.55438,0.113207
-1.55375,0.113541
-1.55313,0.124223
-1.5525,0.112873
-1.55188,0.112206
-1.55125,0.111538
-1.55063,0.111538
-1.55,0.112873
-1.54938,0.113875
-1.54875,0.113541
-1.54813,0.113207
-1.5475,0.110203
-1.54688,0.10553
-1.54625,0.109535
-1.54563,0.111204
-1.545,0.111204
-1.54438,0.111872
-1.54375,0.112206
-1.54313,0.113541
-1.5425,0.11521
-1.54188,0.115878
-1.54125,0.115544
-1.54063,0.11521
-1.54,0.114876
-1.53938,0.114542
-1.53875,0.114542
-1.53813,0.114209
-1.5375,0.114876
-1.53687,0.116211
-1.53625,0.115878
-1.53563,0.117213
-1.535,0.11788
-1.53438,0.116879
-1.53375,0.115878
-1.53313,0.113875
-1.5325,0.113207
-1.53188,0.110537
-1.53125,0.1082
-1.53063,0.110871
-1.53,0.113207
-1.52938,0.114209
-1.52875,0.114209
-1.52813,0.113875
-1.5275,0.113541
-1.52688,0.111538
-1.52625,0.111538
-1.52563,0.111872
-1.525,0.111872
-1.52438,0.112206
-1.52375,0.112873
-1.52313,0.114209
-1.5225,0.116211
-1.52188,0.116545
-1.52125,0.116211
-1.52063,0.115878
-1.52,0.11521
-1.51938,0.11521
-1.51875,0.11521
-1.51813,0.114876
-1.5175,0.114876
-1.51688,0.116211
-1.51625,0.115878
-1.51562,0.117213
-1.515,0.118214
-1.51438,0.116545
-1.51375,0.11521
-1.51313,0.113541
-1.5125,0.11254
-1.51188,0.112206
-1.51125,0.111872
-1.51063,0.111538
-1.51,0.113207
-1.50938,0.113875
-1.50875,0.113541
-1.50813,0.113207
-1.5075,0.112873
-1.50688,0.110871
-1.50625,0.110871
-1.50562,0.111204
-1.505,0.110871
-1.50438,0.108868
-1.50375,0.109202
-1.50313,0.110871
-1.5025,0.115544
-1.50188,0.129563
-1.50125,0.130565
-1.50063,0.128228
-1.5,0.11521
-1.49938,0.11521
-1.49875,0.114876
-1.49813,0.114542
-1.4975,0.114542
-1.49688,0.115544
-1.49625,0.37791
-1.49563,0.3472
-1.495,0.150927
-1.49438,0.291122
-1.49375,0.12923
-1.49313,0.408286
-1.4925,0.455685
-1.49188,0.122887
-1.49125,0.108868
-1.49063,0.108534
-1.49,0.288786
-1.48938,0.123555
-1.48875,0.115878
-1.48813,0.290121
-1.4875,0.125224
-1.48688,0.128228
-1.48625,0.126559
-1.48563,0.32784
-1.485,0.456687
-1.48438,0.354878
-1.48375,0.118882
-1.48313,0.111204
-1.4825,0.112206
-1.48188,0.112873
-1.48125,0.295795
-1.48063,0.133903
-1.48,0.129897
-1.47938,0.316825
-1.47875,0.460025
-1.47813,0.275434
-1.4775,0.127561
-1.47688,0.130899
-1.47625,0.133903
-1.47563,0.136239
-1.475,0.136239
-1.47437,0.132568
-1.47375,0.128562
-1.47313,0.127227
-1.4725,0.126559
-1.47188,0.125558
-1.47125,0.230037
-1.47063,0.463363
-1.47,0.457688
-1.46938,0.456353
-1.46875,0.454016
-1.46813,0.44734
-1.4675,0.121552
-1.46688,0.111204
-1.46625,0.111204
-1.46563,0.111538
-1.465,0.111872
-1.46438,0.112206
-1.46375,0.11254
-1.46313,0.114209
-1.4625,0.115878
-1.46188,0.116211
-1.46125,0.116211
-1.46063,0.115878
-1.46,0.11521
-1.45938,0.11521
-1.45875,0.11521
-1.45813,0.114876
-1.4575,0.114876
-1.45688,0.116211
-1.45625,0.115878
-1.45563,0.117213
-1.455,0.116545
-1.45438,0.116211
-1.45375,0.114209
-1.45312,0.110203
-1.4525,0.109535
-1.45188,0.108868
-1.45125,0.111872
-1.45063,0.120551
-1.45,0.12222
-1.44938,0.122887
-1.44875,0.116211
-1.44813,0.110537
-1.4475,0.11254
-1.44688,0.110871
-1.44625,0.111204
-1.44563,0.111538
-1.445,0.111538
-1.44438,0.111872
-1.44375,0.111872
-1.44312,0.221024
-1.4425,0.193653
-1.44188,0.16528
-1.44125,0.120551
-1.44063,0.132901
-1.44,0.118882
-1.43938,0.115878
-1.43875,0.115878
-1.43813,0.115544
-1.4375,0.115544
-1.43688,0.116879
-1.43625,0.116545
-1.43563,0.11788
-1.435,0.118548
-1.43438,0.117213
